{
    "data": [
        {
            "data": {
                "name": "Documents",
                "val": 100,
                "fileType": "Folder"
            },
            "children": [
                {
                    "data": {
                        "name": "Work",
                        "val": 50,
                        "fileType": "Folder"
                    },
                    "children": [
                        {
                            "data": {
                                "name": "Test",
                                "val": 25,
                                "fileType": "Folder"
                            },
                            "children": [
                                {
                                    "data": {
                                        "name": "Expenses.doc",
                                        "val": 25,
                                        "fileType": "Document"
                                    }
                                }
                            ]
                        },
                        {
                            "data": {
                                "name": "Resume.doc",
                                "val": 25,
                                "fileType": "Resume"
                            }
                        }
                    ]
                },
                {
                    "data": {
                        "name": "Home",
                        "val": 50,
                        "fileType": "Folder"
                    },
                    "children": [
                        {
                            "data": {
                                "name": "Invoices",
                                "val": 50,
                                "fileType": "Text"
                            }
                        }
                    ]
                }
            ]
        },
        {
            "data": {
                "name": "Pictures",
                "val": 150,
                "fileType": "Folder"
            },
            "children": [
                {
                    "data": {
                        "name": "barcelona.jpg",
                        "val": 90,
                        "fileType": "Picture"
                    }
                },
                {
                    "data": {
                        "name": "primeui.png",
                        "val": 30,
                        "fileType": "Picture"
                    }
                },
                {
                    "data": {
                        "name": "optimus.jpg",
                        "val": 30,
                        "fileType": "Picture"
                    }
                }
            ]
        }
    ]
}